module unique-devices

go 1.15

require (
	gerrit.wikimedia.org/r/mediawiki/services/servicelib-golang v0.0.0-20220322011350-df509f780b5c
	github.com/carousell/fasthttp-prometheus-middleware v1.0.6
	github.com/fasthttp/router v1.4.13
	github.com/gocql/gocql v1.2.1
	github.com/klauspost/compress v1.15.12 // indirect
	github.com/prometheus/client_golang v1.14.0 // indirect
	github.com/roger-russel/fasthttp-router-middleware v1.0.0
	github.com/stretchr/testify v1.8.1
	github.com/valyala/fasthttp v1.41.0
	gitlab.wikimedia.org/frankie/aqsassist v0.0.0-20221118180707-d5ae75ae2417
	gopkg.in/yaml.v2 v2.4.0
	schneider.vip/problem v1.7.2
)
